<svg width="568" height="518" viewBox="0 0 568 518" fill="none" xmlns="http://www.w3.org/2000/svg">
<g id="undraw_Credit_card_re_blml 1" clip-path="url(#clip0)">
<g id="card2">
<path id="Vector" d="M488.79 47.567L13.5508 186.032L26.1385 229.235L501.378 90.7705L488.79 47.567Z" fill="#CCCCCC"/>
<path id="Vector_2" d="M70.3292 384.481L0.282701 144.068C-0.236604 142.286 -0.0265598 140.37 0.866594 138.743C1.75975 137.115 3.26285 135.909 5.04527 135.39L468.764 0.281189C470.546 -0.236372 472.461 -0.025616 474.088 0.867218C475.715 1.76005 476.921 3.26201 477.442 5.0434L539.498 218.032L537.578 218.592L475.522 5.60297C475.149 4.33108 474.287 3.25886 473.125 2.62122C471.963 1.98357 470.596 1.83249 469.323 2.2011L5.60472 137.31C4.33156 137.68 3.25792 138.542 2.61995 139.705C1.98198 140.867 1.83195 142.236 2.20287 143.509L72.2494 383.922L70.3292 384.481Z" fill="#CCCCCC"/>
<path id="Vector_3" d="M436.862 219.022C435.455 219.02 434.087 218.563 432.961 217.719C431.836 216.875 431.014 215.689 430.619 214.339L418.87 174.016C418.39 172.361 418.586 170.583 419.415 169.072C420.244 167.561 421.638 166.441 423.292 165.957L463.616 154.208C465.271 153.728 467.049 153.924 468.56 154.753C470.071 155.583 471.191 156.977 471.674 158.631L483.423 198.955C483.903 200.61 483.707 202.387 482.878 203.898C482.049 205.409 480.655 206.529 479.001 207.013L438.677 218.762C438.088 218.934 437.477 219.022 436.862 219.022V219.022Z" fill="#638FFF"/>
<path id="Vector_4" d="M69.2464 144.812C69.1257 144.398 68.9821 143.99 68.8163 143.592C67.6888 140.855 65.5899 138.632 62.9228 137.349C60.2557 136.066 57.2086 135.814 54.367 136.642C51.5254 137.469 49.0898 139.317 47.5281 141.831C45.9665 144.345 45.389 147.348 45.9066 150.262C45.9793 150.687 46.0761 151.108 46.1966 151.522C46.9269 154.014 48.4449 156.203 50.5234 157.761C52.6019 159.319 55.129 160.161 57.7264 160.162C58.8604 160.164 59.9888 160.003 61.0765 159.682C64.1294 158.79 66.704 156.723 68.2355 153.936C69.7671 151.148 70.1307 147.867 69.2464 144.812V144.812ZM60.5165 157.762C57.9704 158.501 55.2353 158.2 52.9108 156.925C50.5863 155.65 48.8622 153.506 48.1166 150.962C47.9995 150.548 47.9059 150.127 47.8363 149.702C47.4612 147.301 47.9735 144.846 49.2773 142.795C50.5811 140.745 52.5871 139.239 54.9204 138.56C57.2536 137.881 59.7543 138.075 61.9547 139.106C64.1551 140.137 65.9047 141.935 66.8763 144.162C67.0574 144.553 67.2079 144.958 67.3265 145.372C68.0644 147.918 67.7617 150.653 66.4849 152.976C65.2081 155.299 63.0614 157.02 60.5165 157.762V157.762Z" fill="#FF636C"/>
<path id="Vector_5" d="M39.814 153.382C39.174 151.184 39.2355 148.841 39.9898 146.68C40.7442 144.519 42.1538 142.647 44.0223 141.325C42.2717 141.239 40.5261 141.574 38.9308 142.3C37.3355 143.026 35.9368 144.122 34.8512 145.498C33.7655 146.874 33.0244 148.49 32.6896 150.21C32.3547 151.931 32.4358 153.706 32.9261 155.389C33.4163 157.071 34.3016 158.613 35.5081 159.884C36.7146 161.155 38.2075 162.12 39.8623 162.697C41.5171 163.275 43.2859 163.449 45.0215 163.204C46.757 162.96 48.4091 162.304 49.8399 161.292C47.5536 161.18 45.359 160.358 43.5619 158.94C41.7648 157.523 40.4547 155.579 39.814 153.382V153.382Z" fill="#638FFF"/>
<path id="Vector_6" d="M350.676 202.942C350.463 202.177 350.102 201.461 349.612 200.836C349.122 200.21 348.514 199.687 347.822 199.297C347.13 198.907 346.368 198.657 345.58 198.562C344.791 198.467 343.991 198.528 343.226 198.742L276.836 217.312L269.686 219.312H314.586L321.736 217.312L346.486 210.392C348.029 209.958 349.337 208.931 350.122 207.534C350.908 206.137 351.107 204.485 350.676 202.942V202.942Z" fill="#FF636C"/>
<path id="Vector_7" d="M303.706 189.072C303.274 187.529 302.246 186.22 300.849 185.434C299.452 184.649 297.8 184.45 296.256 184.882L196.637 212.742C195.245 213.136 194.039 214.015 193.238 215.22C192.437 216.424 192.092 217.876 192.266 219.312H218.056L225.216 217.312L299.516 196.532C301.06 196.097 302.369 195.067 303.155 193.669C303.94 192.27 304.139 190.617 303.706 189.072Z" fill="#FF636C"/>
</g>
<g id="Group 1">
<g id="beans1">
<path id="Vector_8" d="M172.81 386.09C170.424 386.087 168.136 385.138 166.449 383.451C164.762 381.764 163.813 379.476 163.81 377.09V350.09C163.81 347.703 164.758 345.414 166.446 343.726C168.134 342.038 170.423 341.09 172.81 341.09C175.197 341.09 177.486 342.038 179.174 343.726C180.862 345.414 181.81 347.703 181.81 350.09V377.09C181.807 379.476 180.858 381.764 179.171 383.451C177.484 385.138 175.196 386.087 172.81 386.09V386.09Z" fill="#638FFF"/>
<path id="Vector_9" d="M196.81 386.09C194.424 386.087 192.136 385.138 190.449 383.451C188.762 381.764 187.813 379.476 187.81 377.09V350.09C187.81 347.703 188.758 345.414 190.446 343.726C192.134 342.038 194.423 341.09 196.81 341.09C199.197 341.09 201.486 342.038 203.174 343.726C204.862 345.414 205.81 347.703 205.81 350.09V377.09C205.807 379.476 204.858 381.764 203.171 383.451C201.484 385.138 199.196 386.087 196.81 386.09V386.09Z" fill="#638FFF"/>
<path id="Vector_10" d="M220.81 386.09C218.424 386.087 216.136 385.138 214.449 383.451C212.762 381.764 211.813 379.476 211.81 377.09V350.09C211.81 347.703 212.758 345.414 214.446 343.726C216.134 342.038 218.423 341.09 220.81 341.09C223.197 341.09 225.486 342.038 227.174 343.726C228.862 345.414 229.81 347.703 229.81 350.09V377.09C229.807 379.476 228.858 381.764 227.171 383.451C225.484 385.138 223.196 386.087 220.81 386.09V386.09Z" fill="#638FFF"/>
</g>
<g id="beans2">
<path id="Vector_11" d="M257.81 386.09C255.424 386.087 253.136 385.138 251.449 383.451C249.762 381.764 248.813 379.476 248.81 377.09V350.09C248.81 347.703 249.758 345.414 251.446 343.726C253.134 342.038 255.423 341.09 257.81 341.09C260.197 341.09 262.486 342.038 264.174 343.726C265.862 345.414 266.81 347.703 266.81 350.09V377.09C266.807 379.476 265.858 381.764 264.171 383.451C262.484 385.138 260.196 386.087 257.81 386.09V386.09Z" fill="#638FFF"/>
<path id="Vector_12" d="M281.81 386.09C279.424 386.087 277.136 385.138 275.449 383.451C273.762 381.764 272.813 379.476 272.81 377.09V350.09C272.81 347.703 273.758 345.414 275.446 343.726C277.134 342.038 279.423 341.09 281.81 341.09C284.197 341.09 286.486 342.038 288.174 343.726C289.862 345.414 290.81 347.703 290.81 350.09V377.09C290.807 379.476 289.858 381.764 288.171 383.451C286.484 385.138 284.196 386.087 281.81 386.09V386.09Z" fill="#638FFF"/>
<path id="Vector_13" d="M305.81 386.09C303.424 386.087 301.136 385.138 299.449 383.451C297.762 381.764 296.813 379.476 296.81 377.09V350.09C296.81 347.703 297.758 345.414 299.446 343.726C301.134 342.038 303.423 341.09 305.81 341.09C308.197 341.09 310.486 342.038 312.174 343.726C313.862 345.414 314.81 347.703 314.81 350.09V377.09C314.807 379.476 313.858 381.764 312.171 383.451C310.484 385.138 308.196 386.087 305.81 386.09V386.09Z" fill="#638FFF"/>
</g>
<g id="beans3">
<path id="Vector_14" d="M343 386C340.614 385.997 338.326 385.048 336.639 383.361C334.952 381.674 334.003 379.386 334 377V350C334 347.613 334.948 345.324 336.636 343.636C338.324 341.948 340.613 341 343 341C345.387 341 347.676 341.948 349.364 343.636C351.052 345.324 352 347.613 352 350V377C351.997 379.386 351.048 381.674 349.361 383.361C347.674 385.048 345.386 385.997 343 386V386Z" fill="#638FFF"/>
<path id="Vector_15" d="M367 386C364.614 385.997 362.326 385.048 360.639 383.361C358.952 381.674 358.003 379.386 358 377V350C358 347.613 358.948 345.324 360.636 343.636C362.324 341.948 364.613 341 367 341C369.387 341 371.676 341.948 373.364 343.636C375.052 345.324 376 347.613 376 350V377C375.997 379.386 375.048 381.674 373.361 383.361C371.674 385.048 369.386 385.997 367 386V386Z" fill="#638FFF"/>
<path id="Vector_16" d="M391 386C388.614 385.997 386.326 385.048 384.639 383.361C382.952 381.674 382.003 379.386 382 377V350C382 347.613 382.948 345.324 384.636 343.636C386.324 341.948 388.613 341 391 341C393.387 341 395.676 341.948 397.364 343.636C399.052 345.324 400 347.613 400 350V377C399.997 379.386 399.048 381.674 397.361 383.361C395.674 385.048 393.386 385.997 391 386V386Z" fill="#638FFF"/>
</g>
<g id="beans4">
<path id="Vector_17" d="M427.81 386C425.424 385.997 423.136 385.048 421.449 383.361C419.762 381.674 418.813 379.386 418.81 377V350C418.81 347.613 419.758 345.324 421.446 343.636C423.134 341.948 425.423 341 427.81 341C430.197 341 432.486 341.948 434.174 343.636C435.862 345.324 436.81 347.613 436.81 350V377C436.807 379.386 435.858 381.674 434.171 383.361C432.484 385.048 430.196 385.997 427.81 386V386Z" fill="#638FFF"/>
<path id="Vector_18" d="M451.81 386C449.424 385.997 447.136 385.048 445.449 383.361C443.762 381.674 442.813 379.386 442.81 377V350C442.81 347.613 443.758 345.324 445.446 343.636C447.134 341.948 449.423 341 451.81 341C454.197 341 456.486 341.948 458.174 343.636C459.862 345.324 460.81 347.613 460.81 350V377C460.807 379.386 459.858 381.674 458.171 383.361C456.484 385.048 454.196 385.997 451.81 386V386Z" fill="#638FFF"/>
<path id="Vector_19" d="M475.81 386C473.424 385.997 471.136 385.048 469.449 383.361C467.762 381.674 466.813 379.386 466.81 377V350C466.81 347.613 467.758 345.324 469.446 343.636C471.134 341.948 473.423 341 475.81 341C478.197 341 480.486 341.948 482.174 343.636C483.862 345.324 484.81 347.613 484.81 350V377C484.807 379.386 483.858 381.674 482.171 383.361C480.484 385.048 478.196 385.997 475.81 386V386Z" fill="#638FFF"/>
</g>
</g>
<g id="horizontalLines">
<path id="Vector_20" d="M233.828 486.257H104.388C102.784 486.257 101.246 485.62 100.112 484.486C98.9775 483.352 98.3404 481.813 98.3404 480.21C98.3404 478.606 98.9775 477.068 100.112 475.933C101.246 474.799 102.784 474.162 104.388 474.162H233.828C235.432 474.162 236.97 474.799 238.104 475.933C239.238 477.068 239.875 478.606 239.875 480.21C239.875 481.813 239.238 483.352 238.104 484.486C236.97 485.62 235.432 486.257 233.828 486.257Z" fill="#CCCCCC"/>
<path id="Vector_21" d="M192.328 460.257H145.888C144.284 460.257 142.746 459.62 141.612 458.486C140.478 457.352 139.84 455.813 139.84 454.21C139.84 452.606 140.478 451.068 141.612 449.933C142.746 448.799 144.284 448.162 145.888 448.162H192.328C193.932 448.162 195.47 448.799 196.604 449.933C197.738 451.068 198.375 452.606 198.375 454.21C198.375 455.813 197.738 457.352 196.604 458.486C195.47 459.62 193.932 460.257 192.328 460.257V460.257Z" fill="#CCCCCC"/>
</g>
<g id="card1" fill="#fff">
<path id="Vector_22" d="M560.17 217.31H77.1699C75.3141 217.312 73.5348 218.05 72.2225 219.362C70.9102 220.675 70.172 222.454 70.1699 224.31V510.31C70.1719 512.166 70.9101 513.945 72.2224 515.257C73.5347 516.57 75.314 517.308 77.1699 517.31H560.17C562.026 517.308 563.806 516.569 565.118 515.257C566.43 513.945 567.168 512.166 567.17 510.31V224.31C567.168 222.454 566.43 220.675 565.118 219.362C563.805 218.05 562.026 217.312 560.17 217.31V217.31ZM565.17 510.31C565.17 511.636 564.643 512.907 563.705 513.845C562.768 514.782 561.496 515.309 560.17 515.31H77.1699C75.844 515.309 74.5725 514.782 73.6349 513.845C72.6974 512.907 72.1704 511.636 72.1699 510.31V224.31C72.1705 222.984 72.6975 221.712 73.635 220.775C74.5726 219.837 75.844 219.31 77.1699 219.31H560.17C561.496 219.31 562.768 219.837 563.705 220.775C564.643 221.712 565.17 222.984 565.17 224.31V510.31Z" fill="#E0E0E0"/>
<path id="Vector_23" d="M124.166 256.312C121.793 256.312 119.473 255.608 117.5 254.29C115.526 252.971 113.988 251.097 113.08 248.904C112.172 246.711 111.934 244.299 112.397 241.971C112.86 239.643 114.003 237.505 115.681 235.827C117.359 234.148 119.498 233.005 121.825 232.542C124.153 232.079 126.566 232.317 128.759 233.225C130.951 234.134 132.825 235.672 134.144 237.645C135.463 239.618 136.166 241.938 136.166 244.312C136.163 247.493 134.897 250.543 132.648 252.793C130.398 255.043 127.348 256.308 124.166 256.312V256.312ZM124.166 234.312C122.189 234.312 120.255 234.898 118.611 235.997C116.966 237.096 115.684 238.658 114.928 240.485C114.171 242.312 113.973 244.323 114.359 246.263C114.744 248.203 115.697 249.984 117.095 251.383C118.494 252.781 120.276 253.734 122.215 254.12C124.155 254.506 126.166 254.308 127.993 253.551C129.82 252.794 131.382 251.512 132.481 249.868C133.58 248.223 134.166 246.29 134.166 244.312C134.163 241.661 133.109 239.119 131.234 237.244C129.359 235.369 126.818 234.315 124.166 234.312V234.312Z" fill="#EB5757"/>
<path id="Vector_24" d="M105.514 244.312C105.515 242.023 106.229 239.791 107.558 237.927C108.886 236.063 110.763 234.66 112.927 233.913C111.27 233.342 109.501 233.174 107.766 233.425C106.032 233.676 104.382 234.337 102.955 235.355C101.528 236.372 100.364 237.716 99.5614 239.274C98.7586 240.832 98.3398 242.559 98.3398 244.312C98.3398 246.065 98.7586 247.792 99.5614 249.35C100.364 250.908 101.528 252.252 102.955 253.269C104.382 254.286 106.032 254.948 107.766 255.199C109.501 255.449 111.27 255.282 112.927 254.71C110.763 253.964 108.886 252.561 107.558 250.697C106.229 248.833 105.515 246.601 105.514 244.312V244.312Z" fill="#E0E0E0"/>
<path id="Vector_25" d="M564.81 277.09H71.8101V279.09H564.81V277.09Z" fill="#E0E0E0"/>
</g>
</g>
<defs>
<clipPath id="clip0">
<rect width="567.17" height="517.31" fill="white"/>
</clipPath>
</defs>
</svg>
